#2429 - Agan

culture = samoyed
religion = sunni
capital = "Nadym"
trade_goods = unknown
hre = no
base_tax = 1 
base_production = 1
base_manpower = 1
native_size = 5
native_ferocity = 2
native_hostileness = 3

1618.1.1 = {
	discovered_by = RUS
	owner = RUS
	controller = RUS
	religion = orthodox
	culture = russian
}
1628.1.1 = {
	add_core = RUS
	trade_goods = fur
}

discovered_by = nomad_group

